TITL zsgh_tutorial
    zsgh_tutorial.res
    created by SHELXL-2018/3 at 13:36:34 on 02-May-2024
REM previously published under CCDC 650638
CELL 1.54184 8.5085 7.5424 19.7274 90 90 90
ZERR 8 0.0001 0.0001 0.0002 0 0 0
LATT 1
SYMM 0.5-X,-Y,0.5+Z
SYMM -X,0.5+Y,0.5-Z
SYMM 0.5+X,0.5-Y,-Z
SFAC C H O
UNIT 48 96 16

L.S. 9
PLAN  20
SIZE 0.02 0.11 0.2
TEMP -173
CONF
BOND
list 4
fmap 2
MORE -1
BOND $H
ACTA
REM <olex2.extras>
REM <HklSrc "%.\\zsgh_tutorial.hkl">
REM </olex2.extras>

WGHT    0.060600    0.432300
FVAR       6.74955
O2    3    0.339662    0.939040    0.542472    11.00000    0.01944    0.02028 =
         0.02861    0.00185   -0.00393   -0.00012
AFIX 147
H2    2    0.277950    0.887798    0.515624    11.00000   -1.50000
AFIX   0
O1    3    0.630990    0.755817    0.532454    11.00000    0.01890    0.02235 =
         0.02736    0.00475    0.00417    0.00242
AFIX 147
H1    2    0.602201    0.840162    0.507574    11.00000   -1.50000
AFIX   0
C2    1    0.388220    0.817402    0.593957    11.00000    0.01766    0.02044 =
         0.02442    0.00157    0.00097    0.00021
AFIX  13
H2A   2    0.292799    0.757770    0.612825    11.00000   -1.20000
AFIX   0
C1    1    0.495646    0.676367    0.563795    11.00000    0.01840    0.01960 =
         0.02369    0.00009    0.00146   -0.00148
AFIX  13
H1A   2    0.436092    0.607125    0.529025    11.00000   -1.20000
AFIX   0
C3    1    0.467922    0.919775    0.650478    11.00000    0.02401    0.02506 =
         0.02647   -0.00426   -0.00044    0.00277
AFIX  23
H3B   2    0.392796    1.005528    0.670318    11.00000   -1.20000
H3A   2    0.557937    0.987187    0.631854    11.00000   -1.20000
AFIX   0
C5    1    0.634899    0.651358    0.676106    11.00000    0.02301    0.02936 =
         0.02583    0.00494   -0.00065    0.00278
AFIX  23
H5A   2    0.731862    0.708417    0.658972    11.00000   -1.20000
H5B   2    0.665166    0.566772    0.712191    11.00000   -1.20000
AFIX   0
C6    1    0.555127    0.550701    0.618347    11.00000    0.02250    0.02110 =
         0.02875    0.00339    0.00241    0.00167
AFIX  23
H6A   2    0.630911    0.466400    0.598068    11.00000   -1.20000
H6B   2    0.465815    0.481498    0.636638    11.00000   -1.20000
AFIX   0
C4    1    0.526151    0.792916    0.705827    11.00000    0.02823    0.03452 =
         0.02314   -0.00169   -0.00075    0.00272
AFIX  23
H4B   2    0.583349    0.861027    0.740923    11.00000   -1.20000
H4A   2    0.434941    0.734911    0.727714    11.00000   -1.20000
AFIX   0
HKLF 4




REM  zsgh_tutorial
REM wR2 = 0.1085, GooF = S = 1.069, Restrained GooF = 1.069 for all data
REM R1 = 0.0387 for 1188 Fo > 4sig(Fo) and 0.0411 for all 1273 data
REM 75 parameters refined using 0 restraints

END  
     
WGHT      0.0606      0.4323 

REM Highest difference peak  0.295,  deepest hole -0.206,  1-sigma level  0.041
Q1    1   0.5232  0.6149  0.5912  11.00000  0.05    0.29
Q2    1   0.4255  0.8683  0.6224  11.00000  0.05    0.27
Q3    1   0.5007  0.8564  0.6778  11.00000  0.05    0.25
Q4    1   0.4413  0.7501  0.5810  11.00000  0.05    0.24
Q5    1   0.5774  0.7237  0.6888  11.00000  0.05    0.23
Q6    1   0.5791  0.6003  0.6491  11.00000  0.05    0.21
Q7    1   0.3601  0.8772  0.5714  11.00000  0.05    0.18
Q8    1   0.6349  0.8119  0.5798  11.00000  0.05    0.16
Q9    1   0.6209  0.7239  0.4837  11.00000  0.05    0.15
Q10   1   0.5260  0.8557  0.7536  11.00000  0.05    0.14
Q11   1   0.3395  1.0000  0.5841  11.00000  0.05    0.13
Q12   1   0.3537  0.9592  0.4904  11.00000  0.05    0.11
Q13   1   0.3734  0.8788  0.5003  11.00000  0.05    0.10
Q14   1   0.3391  0.7635  0.6129  11.00000  0.05    0.10
Q15   1   0.6417  0.7262  0.5827  11.00000  0.05    0.10
Q16   1   0.4683  1.1153  0.7190  11.00000  0.05    0.10
Q17   1   0.5882  0.9748  0.5955  11.00000  0.05    0.10
Q18   1   0.5024  0.7532  0.7594  11.00000  0.05    0.09
Q19   1   0.5747  0.7533  0.7674  11.00000  0.05    0.09
Q20   1   0.6389  0.6291  0.7255  11.00000  0.05    0.09

  REM The information below was added by Olex2.
  REM
  REM R1 = 0.0387 for 1188 Fo > 4sig(Fo) and 0.0411 for all 41484 data
  REM 75 parameters refined using n/a restraints
  REM Highest difference peak 0.29, deepest hole -0.21
  REM Mean Shift 0, Max Shift -0.001.

  REM +++ Tabular Listing of Refinement Information +++
  REM R1_all = 0.0411
  REM R1_gt = 0.0387
  REM wR_ref = 0.1085
  REM GOOF = 1.069
  REM Shift_max = -0.001
  REM Shift_mean = 0
  REM Reflections_all = 41484
  REM Reflections_gt = 1188
  REM Parameters = 75
  REM Hole = -0.21
  REM Peak = 0.29
  REM Flack = n/a

  